O        bender            [110/41] via 10.0.13.3, 3d18h, FastEthernet0/1
O        devel_newfeature  [110/31] via 10.0.13.3, 3d20h, FastEthernet0/2
O        devel_bufix       [110/11] via 10.0.13.3, 3d20h, FastEthernet0/5
O        qa_test1          [110/51] via 10.0.13.3, 3d20h, FastEthernet0/8
O        qa_test2          [110/21] via 10.0.13.3, 3d20h, FastEthernet0/10
O        prod              [110/20] via 10.0.19.9, 4d02h, FastEthernet0/13
